{"uuid":"7e9cf9d3-a540-4663-a478-116270d43cb2","historyId":"25c99f209344f6e033a8d3d8aee823d3","testCaseId":"27867e24f6aa9c7bb2db8905aac957bb","fullName":"src/test/resources/Selenium/Cucumber/API/ListUsers.feature:16","labels":[{"name":"tag","value":"Api"},{"name":"host","value":"Rohits-MacBook-Air.local"},{"name":"thread","value":"34085@Rohits-MacBook-Air.local.TestNG-test-Surefire test-1(28)"},{"name":"feature","value":"List User"},{"name":"story","value":"List user positive"},{"name":"suite","value":"List User"},{"name":"testClass","value":"List user positive"},{"name":"framework","value":"cucumber4jvm"},{"name":"language","value":"java"},{"name":"gherkin_uri","value":"file:///Users/rohitsharma/eclipse-workspace/MyAutomationProject/src/test/resources/Selenium/Cucumber/API/ListUsers.feature"},{"name":"package","value":"src.test.resources.Selenium.Cucumber.API.ListUsers_feature.List User"}],"links":[],"name":"List user positive","status":"passed","statusDetails":{"known":false,"muted":false,"flaky":false},"stage":"finished","description":"  Feature: List user success","steps":[{"name":"Given Preparing to call \"listuser\" api","status":"passed","statusDetails":{"known":false,"muted":false,"flaky":false},"stage":"finished","steps":[],"attachments":[{"name":"string","source":"5eaf147f-1106-4223-9d07-5f16f71fb2a4-attachment.txt","type":"text/plain"}],"parameters":[],"start":1757408055180,"stop":1757408055245},{"name":"When I call \"api/users?page=2\" with \"get\"","status":"passed","statusDetails":{"known":false,"muted":false,"flaky":false},"stage":"finished","steps":[],"attachments":[{"name":"string","source":"eb28daee-5b8e-43de-bd99-a7cddfc8e0ed-attachment.txt","type":"text/plain"},{"name":"string","source":"3aaf84e5-ec58-4b72-a09d-8d647f6db5f8-attachment.txt","type":"text/plain"}],"parameters":[],"start":1757408055246,"stop":1757408055980},{"name":"Then Response status should be 200","status":"passed","statusDetails":{"known":false,"muted":false,"flaky":false},"stage":"finished","steps":[{"name":"{\"page\":2,\"per_page\":6,\"total\":12,\"total_pages\":2,\"data\":[{\"id\":7,\"email\":\"michael.lawson@reqres.in\",\"first_name\":\"Michael\",\"last_name\":\"Lawson\",\"avatar\":\"https://reqres.in/img/faces/7-image.jpg\"},{\"id\":8,\"email\":\"lindsay.ferguson@reqres.in\",\"first_name\":\"Lindsay\",\"last_name\":\"Ferguson\",\"avatar\":\"https://reqres.in/img/faces/8-image.jpg\"},{\"id\":9,\"email\":\"tobias.funke@reqres.in\",\"first_name\":\"Tobias\",\"last_name\":\"Funke\",\"avatar\":\"https://reqres.in/img/faces/9-image.jpg\"},{\"id\":10,\"email\":\"byron.fields@reqres.in\",\"first_name\":\"Byron\",\"last_name\":\"Fields\",\"avatar\":\"https://reqres.in/img/faces/10-image.jpg\"},{\"id\":11,\"email\":\"george.edwards@reqres.in\",\"first_name\":\"George\",\"last_name\":\"Edwards\",\"avatar\":\"https://reqres.in/img/faces/11-image.jpg\"},{\"id\":12,\"email\":\"rachel.howell@reqres.in\",\"first_name\":\"Rachel\",\"last_name\":\"Howell\",\"avatar\":\"https://reqres.in/img/faces/12-image.jpg\"}],\"support\":{\"url\":\"https://contentcaddy.io?utm_source=reqres&utm_medium=json&utm_campaign=referral\",\"text\":\"Tired of writing endless social media content? Let Content Caddy generate it for you.\"}}","status":"passed","stage":"finished","steps":[],"attachments":[],"parameters":[],"start":1757408055982,"stop":1757408055982}],"attachments":[{"name":"int","source":"1351d4a4-54a3-4410-aef6-1c2e3b44ec4c-attachment.txt","type":"text/plain"}],"parameters":[],"start":1757408055980,"stop":1757408055982},{"name":"And response parameter \"data\" size should be \"equal to\" 6","status":"passed","statusDetails":{"known":false,"muted":false,"flaky":false},"stage":"finished","steps":[],"attachments":[{"name":"string","source":"846bc3ce-6351-484f-bfc3-8cf79facc8dd-attachment.txt","type":"text/plain"},{"name":"string","source":"59f81c46-55da-4da5-b736-379bf156f409-attachment.txt","type":"text/plain"},{"name":"int","source":"76204062-e816-4976-90c2-dde59a24eb97-attachment.txt","type":"text/plain"}],"parameters":[],"start":1757408055982,"stop":1757408055991},{"name":"And response parameter \"data.first_name\" should contain \"Michael\"","status":"passed","statusDetails":{"known":false,"muted":false,"flaky":false},"stage":"finished","steps":[{"name":"node value isnull","status":"passed","stage":"finished","steps":[],"attachments":[],"parameters":[],"start":1757408056000,"stop":1757408056000}],"attachments":[{"name":"string","source":"1fad5c26-8d5d-4ac2-ba91-a43aa8304379-attachment.txt","type":"text/plain"},{"name":"string","source":"c7ed7ec5-5121-4728-b539-94d3c741cbff-attachment.txt","type":"text/plain"}],"parameters":[],"start":1757408055991,"stop":1757408056001}],"attachments":[],"parameters":[{"name":"statuscode","value":"200"},{"name":"apiendpoint","value":"api/users?page=2"}],"start":1757408054925,"stop":1757408056001}