{"uuid":"c8ff85c9-c3ea-4e18-a082-ca7ce674be63","historyId":"25c99f209344f6e033a8d3d8aee823d3","testCaseId":"27867e24f6aa9c7bb2db8905aac957bb","fullName":"src/test/resources/Selenium/Cucumber/API/ListUsers.feature:16","labels":[{"name":"tag","value":"Api"},{"name":"host","value":"Rohits-MacBook-Air.local"},{"name":"thread","value":"31498@Rohits-MacBook-Air.local.TestNG-test-Surefire test-1(28)"},{"name":"feature","value":"List User"},{"name":"story","value":"List user positive"},{"name":"suite","value":"List User"},{"name":"testClass","value":"List user positive"},{"name":"framework","value":"cucumber4jvm"},{"name":"language","value":"java"},{"name":"gherkin_uri","value":"file:///Users/rohitsharma/eclipse-workspace/MyAutomationProject/src/test/resources/Selenium/Cucumber/API/ListUsers.feature"},{"name":"package","value":"src.test.resources.Selenium.Cucumber.API.ListUsers_feature.List User"}],"links":[],"name":"List user positive","status":"passed","statusDetails":{"known":false,"muted":false,"flaky":false},"stage":"finished","description":"  Feature: List user success","steps":[{"name":"Given Preparing to call \"listuser\" api","status":"passed","statusDetails":{"known":false,"muted":false,"flaky":false},"stage":"finished","steps":[{"name":"Given Preparing to call \"listuser\" api","status":"passed","stage":"finished","steps":[],"attachments":[],"parameters":[],"start":1757399607187,"stop":1757399607187}],"attachments":[],"parameters":[],"start":1757399607187,"stop":1757399607246},{"name":"When I call \"api/users?page=2\" with \"get\"","status":"passed","statusDetails":{"known":false,"muted":false,"flaky":false},"stage":"finished","steps":[{"name":"When I call \"api/users?page=2\" with \"get\"","status":"passed","stage":"finished","steps":[],"attachments":[],"parameters":[],"start":1757399607247,"stop":1757399607247}],"attachments":[],"parameters":[],"start":1757399607247,"stop":1757399608012},{"name":"Then Response status should be 200","status":"passed","statusDetails":{"known":false,"muted":false,"flaky":false},"stage":"finished","steps":[{"name":"Then Response status should be 200","status":"passed","stage":"finished","steps":[],"attachments":[],"parameters":[],"start":1757399608013,"stop":1757399608013},{"name":"{\"page\":2,\"per_page\":6,\"total\":12,\"total_pages\":2,\"data\":[{\"id\":7,\"email\":\"michael.lawson@reqres.in\",\"first_name\":\"Michael\",\"last_name\":\"Lawson\",\"avatar\":\"https://reqres.in/img/faces/7-image.jpg\"},{\"id\":8,\"email\":\"lindsay.ferguson@reqres.in\",\"first_name\":\"Lindsay\",\"last_name\":\"Ferguson\",\"avatar\":\"https://reqres.in/img/faces/8-image.jpg\"},{\"id\":9,\"email\":\"tobias.funke@reqres.in\",\"first_name\":\"Tobias\",\"last_name\":\"Funke\",\"avatar\":\"https://reqres.in/img/faces/9-image.jpg\"},{\"id\":10,\"email\":\"byron.fields@reqres.in\",\"first_name\":\"Byron\",\"last_name\":\"Fields\",\"avatar\":\"https://reqres.in/img/faces/10-image.jpg\"},{\"id\":11,\"email\":\"george.edwards@reqres.in\",\"first_name\":\"George\",\"last_name\":\"Edwards\",\"avatar\":\"https://reqres.in/img/faces/11-image.jpg\"},{\"id\":12,\"email\":\"rachel.howell@reqres.in\",\"first_name\":\"Rachel\",\"last_name\":\"Howell\",\"avatar\":\"https://reqres.in/img/faces/12-image.jpg\"}],\"support\":{\"url\":\"https://contentcaddy.io?utm_source=reqres&utm_medium=json&utm_campaign=referral\",\"text\":\"Tired of writing endless social media content? Let Content Caddy generate it for you.\"}}","status":"passed","stage":"finished","steps":[],"attachments":[],"parameters":[],"start":1757399608014,"stop":1757399608014}],"attachments":[],"parameters":[],"start":1757399608013,"stop":1757399608014},{"name":"And response parameter \"data\" size should be \"equal to\" 6","status":"passed","statusDetails":{"known":false,"muted":false,"flaky":false},"stage":"finished","steps":[{"name":"And response parameter \"data\" size should be \"equal to\" 6","status":"passed","stage":"finished","steps":[],"attachments":[],"parameters":[],"start":1757399608014,"stop":1757399608014}],"attachments":[],"parameters":[],"start":1757399608014,"stop":1757399608022},{"name":"And response parameter \"data.first_name\" should contain \"Michael\"","status":"passed","statusDetails":{"known":false,"muted":false,"flaky":false},"stage":"finished","steps":[{"name":"And response parameter \"data.first_name\" should contain \"Michael\"","status":"passed","stage":"finished","steps":[],"attachments":[],"parameters":[],"start":1757399608022,"stop":1757399608022},{"name":"node value isnull","status":"passed","stage":"finished","steps":[],"attachments":[],"parameters":[],"start":1757399608031,"stop":1757399608031}],"attachments":[],"parameters":[],"start":1757399608022,"stop":1757399608031}],"attachments":[],"parameters":[{"name":"statuscode","value":"200"},{"name":"apiendpoint","value":"api/users?page=2"}],"start":1757399606928,"stop":1757399608032}